…
  # rename
  select(chr, start, end, imprint_tissue_specificity = tissue_specificity,
         imprint_methylated_allele = methylated_allele,
         imprint_sources, imprint_region)

# identify overlapping regions
imprint %>%
  group_by(imprint_tissue_specificity) %>%
  mutate(previous_end = cummax(lag(end, default = 0)), # get the previous row's end or the cummax
         new_group = (start >= previous_end),
         group = cumsum(new_group))  
```

```
## # A tibble: 418 x 10
## # Groups:   imprint_tissue_specificity [2]
##    chr    start    end imprint_tissue_~ imprint_methyla~ imprint_sources
##    <chr>  <dbl>  <dbl> <chr>            <chr>            <chr>          
##  1 chr1  6.68e6 6.69e6 placental-speci~ M                Hanna 2016     
##  2 chr1  7.83e6 7.83e6 other            M                Zink 2018      
##  3 chr1  1.96e7 1.96e7 placental-speci~ M                Hanna 2016     
##  4 chr1  3.62e7 3.62e7 placental-speci~ M                Hanna 2016     
##  5 chr1  3.82e7 3.82e7 other            M                Hanna 2016     
##  6 chr1  3.96e7 3.96e7 other            M                Zink 2018      
##  7 chr1  4.00e7 4.00e7 other            M                Court 2014, Ha~
##  8 chr1  5.49e7 5.49e7 placental-speci~ M                Hanna 2016     
##  9 chr1  5.55e7 5.55e7 placental-speci~ M                Hanna 2016     
## 10 chr1  6.78e7 6.78e7 placental-speci~ M                Hanna 2016     
## # ... with 408 more rows, and 4 more variables: imprint_region <chr>,
## #   previous_end <dbl>, new_group <lgl>, group <int>
```
…
